{"componentChunkName":"component---src-templates-blog-tsx","path":"/blog/13","result":{"data":{"allMarkdownRemark":{"totalCount":49,"edges":[{"node":{"fields":{"slug":"template"},"frontmatter":{"title":"template","date":"01.01.2010","category":"blog"},"excerpt":"Article template","timeToRead":1}}]}},"pageContext":{"limit":4,"skip":48,"totalPages":13,"currentPage":13}},"staticQueryHashes":["3824141623"]}